<?xml version="1.0" standalone="no"?>
<!DOCTYPE svg PUBLIC "-//W3C//DTD SVG 20010904//EN"
 "http://www.w3.org/TR/2001/REC-SVG-20010904/DTD/svg10.dtd">
<svg version="1.0" xmlns="http://www.w3.org/2000/svg"
 width="1014.000000pt" height="1014.000000pt" viewBox="0 0 1014.000000 1014.000000"
 preserveAspectRatio="xMidYMid meet">
<metadata>
Created by potrace 1.11, written by Peter Selinger 2001-2013
</metadata>
<g transform="translate(0.000000,1014.000000) scale(0.100000,-0.100000)"
fill="#000000" stroke="none">
<path d="M910 7939 c1 -15 44 -46 128 -90 60 -32 54 -33 150 28 79 51 60 60
-150 70 -106 5 -128 3 -128 -8z"/>
<path d="M690 7793 c-114 -71 -125 -75 -152 -65 -37 14 -49 9 -77 -29 -18 -24
-20 -33 -11 -44 16 -19 95 -65 112 -65 7 0 67 34 133 75 66 41 124 75 130 75
5 0 26 -10 45 -22 19 -12 43 -27 52 -33 9 -5 49 -30 88 -54 83 -51 70 -54 227
45 57 35 108 64 114 64 7 0 65 -34 130 -75 65 -41 124 -75 131 -75 7 0 50 23
96 51 98 61 103 77 33 107 l-48 20 -29 -24 c-16 -13 -37 -23 -46 -24 -9 0 -67
32 -127 71 -67 43 -121 71 -138 71 -20 1 -66 -22 -141 -71 -62 -39 -118 -71
-125 -71 -7 0 -35 15 -62 33 -113 73 -187 117 -199 117 -7 0 -68 -34 -136 -77z"/>
<path d="M737 7590 c-43 -28 -80 -50 -83 -50 -3 0 -20 -11 -38 -25 -44 -33
-61 -32 -126 11 -105 69 -107 69 -140 34 -21 -22 -27 -36 -22 -51 9 -22 208
-149 235 -149 10 0 66 31 125 68 59 38 116 71 126 75 13 5 52 -15 137 -68 65
-41 126 -75 136 -75 10 0 72 34 138 75 66 42 126 73 134 70 8 -3 64 -37 126
-75 61 -39 120 -70 130 -70 10 0 72 34 137 76 66 41 125 73 132 71 7 -3 45
-26 85 -51 39 -25 75 -46 80 -46 14 0 34 68 27 93 -7 25 -161 126 -197 129
-15 1 -64 -23 -124 -62 -158 -101 -129 -99 -263 -13 -141 90 -144 90 -275 5
-51 -33 -101 -64 -112 -70 -18 -9 -38 1 -135 62 -63 40 -124 76 -135 79 -14 5
-43 -8 -98 -43z"/>
<path d="M248 7377 c-39 -33 -96 -167 -71 -167 4 0 33 16 65 35 l57 36 120
-76 c67 -41 131 -75 144 -75 13 0 69 29 124 64 142 91 142 90 161 73 9 -7 42
-29 72 -47 30 -19 79 -48 108 -66 31 -19 61 -30 70 -27 10 3 70 39 135 80
l118 74 47 -29 c46 -30 48 -30 111 -18 36 6 66 17 68 23 5 14 -200 143 -227
143 -11 0 -74 -34 -139 -75 -66 -41 -122 -75 -125 -75 -2 0 -57 34 -122 75
-65 41 -128 75 -141 75 -13 0 -36 -9 -51 -19 -89 -63 -206 -131 -218 -127 -8
3 -63 37 -124 76 -61 38 -121 70 -133 70 -12 0 -34 -10 -49 -23z"/>
<path d="M1799 7360 c-30 -22 -56 -40 -60 -40 -11 0 -20 -33 -12 -40 4 -4 42
-1 83 6 41 7 92 15 114 17 21 3 45 12 54 20 13 14 10 19 -34 46 -26 17 -58 31
-70 31 -12 0 -46 -18 -75 -40z"/>
<path d="M195 7111 c-83 -53 -91 -61 -99 -99 -18 -87 8 -92 117 -22 82 53 107
59 127 35 7 -8 16 -15 21 -15 4 0 50 -27 101 -60 51 -33 99 -60 108 -59 8 0
42 18 75 39 115 74 177 110 188 110 7 0 46 -22 88 -49 167 -107 165 -106 209
-86 46 21 55 38 32 58 -37 32 -316 207 -331 207 -9 0 -65 -31 -125 -70 -60
-38 -118 -72 -128 -76 -13 -4 -38 7 -74 30 -110 73 -185 116 -202 115 -9 0
-57 -27 -107 -58z"/>
<path d="M190 6872 c-84 -57 -85 -57 -83 -97 4 -73 17 -81 75 -41 20 13 55 35
79 49 l44 26 119 -76 c66 -41 127 -76 137 -78 9 -2 72 32 140 75 142 90 111
92 277 -13 63 -40 109 -63 120 -60 30 7 215 128 226 146 9 14 5 23 -23 47 -18
17 -37 30 -40 30 -4 0 -43 -23 -86 -50 -44 -28 -85 -48 -92 -46 -7 3 -62 37
-123 76 -61 38 -120 70 -131 70 -21 0 -28 -4 -154 -85 -44 -28 -88 -54 -98
-58 -13 -5 -54 16 -136 68 -66 41 -129 75 -142 74 -13 0 -62 -26 -109 -57z"/>
<path d="M121 6595 c-10 -12 -5 -49 9 -76 10 -18 27 -19 473 -19 915 -1 930
-1 938 12 10 16 -7 40 -49 69 l-36 24 -664 0 c-435 0 -666 -3 -671 -10z"/>
<path d="M160 6370 c0 -28 27 -80 43 -81 63 -7 1606 -3 1620 4 23 11 12 26
-49 68 l-43 29 -785 0 c-786 0 -786 0 -786 -20z"/>
<path d="M6360 6194 c-64 -36 -80 -53 -80 -85 0 -16 -14 -43 -35 -69 -19 -23
-35 -44 -35 -46 0 -7 59 -34 74 -34 8 0 21 12 28 27 28 58 123 83 185 49 15
-8 23 -15 17 -16 -13 0 -24 -22 -30 -60 -13 -77 -20 -84 -89 -93 -59 -8 -68
-13 -108 -61 -37 -45 -46 -49 -146 -61 -60 -7 -146 -45 -196 -86 -26 -21 -53
-39 -61 -39 -22 0 -28 -1 -46 -11 -22 -12 -23 -31 -3 -69 14 -28 13 -32 -19
-87 l-34 -58 -69 -1 c-38 -1 -96 -9 -129 -19 -113 -33 -154 -22 -241 62 -76
74 -157 115 -229 118 -30 1 -57 4 -60 8 -4 4 1 25 11 47 17 37 17 42 3 56 -18
19 -69 12 -89 -12 -25 -30 -110 -44 -289 -46 -152 -2 -178 0 -200 15 -38 26
-57 21 -71 -18 -10 -25 -19 -35 -35 -35 -30 0 -45 -22 -42 -61 3 -32 1 -34
-39 -43 -40 -8 -44 -7 -65 19 -20 25 -25 27 -79 22 -43 -5 -60 -3 -69 8 -7 8
-18 15 -24 15 -15 0 -74 62 -110 117 -41 61 -94 83 -259 108 -112 17 -151 31
-216 79 -55 40 -107 63 -161 71 -22 3 -59 8 -82 11 -24 3 -68 7 -100 9 -74 4
-95 11 -143 49 -107 85 -135 96 -166 65 -17 -17 -32 -22 -68 -20 -91 3 -115
10 -144 41 -34 36 -53 38 -86 6 -25 -23 -30 -23 -91 -14 -36 5 -84 7 -108 4
-37 -4 -117 -44 -155 -77 -7 -5 -32 -20 -57 -32 -43 -21 -45 -23 -42 -63 5
-68 -49 -90 -63 -25 -6 28 -40 50 -72 45 -7 -1 -17 -2 -23 -3 -5 0 -13 -19
-16 -41 -8 -46 -17 -55 -58 -52 -35 3 -89 -24 -136 -68 -19 -18 -52 -43 -72
-56 -50 -32 -59 -53 -57 -127 1 -35 -5 -82 -14 -108 -25 -74 -5 -147 49 -171
13 -6 24 -14 24 -17 0 -4 12 -19 26 -34 26 -28 50 -31 89 -10 20 10 60 22 105
29 14 2 35 7 48 9 119 27 170 23 231 -18 81 -56 153 -68 251 -42 14 4 39 7 55
6 17 0 101 0 188 0 157 -1 197 -8 197 -36 0 -26 48 -51 122 -65 67 -12 88 -14
119 -11 5 1 15 14 20 31 18 50 64 49 124 -4 17 -15 54 -43 83 -62 136 -92 214
-101 338 -40 l77 39 61 -21 c166 -56 224 -43 241 57 4 25 15 47 28 56 25 18
134 20 187 5 19 -6 64 -15 100 -21 67 -11 100 -30 100 -59 0 -32 25 -43 64
-29 29 10 43 10 90 -5 63 -20 107 -17 182 12 27 11 74 22 104 25 58 5 125 34
248 106 96 56 128 61 186 27 l45 -26 183 4 c230 5 292 23 364 103 14 16 35 25
68 28 26 3 64 14 84 24 37 19 69 25 172 36 78 9 118 23 125 46 13 39 -4 85
-45 123 -43 39 -50 69 -26 102 15 19 16 18 68 -8 71 -37 93 -36 107 4 10 27 9
35 -4 44 -23 17 -18 49 15 84 24 26 32 29 49 21 31 -17 56 -13 84 13 40 37 44
84 13 146 -20 39 -23 56 -16 70 17 32 11 50 -37 110 -80 96 -116 108 -193 64z"/>
<path d="M217 6167 c-4 -13 16 -74 29 -87 7 -7 341 -9 924 -8 1019 3 966 -1
873 70 l-48 36 -887 -1 c-615 0 -888 -3 -891 -10z"/>
<path d="M8887 6020 c-46 -29 -117 -106 -117 -126 0 -7 5 -25 10 -39 9 -24 14
-26 49 -21 21 3 68 17 105 32 37 14 70 24 73 20 10 -9 -46 -64 -72 -70 -37 -9
-174 -98 -221 -142 -24 -24 -44 -52 -44 -63 0 -25 36 -51 72 -51 16 0 36 -9
45 -20 23 -26 45 -25 80 4 52 43 66 47 99 25 44 -29 97 -24 168 15 64 36 72
37 183 16 65 -11 120 -5 208 25 73 24 88 26 170 20 116 -10 148 -8 196 11 38
16 59 49 45 72 -3 6 1 26 9 46 21 49 19 70 -10 104 -14 17 -25 36 -25 44 0 8
-6 22 -13 32 -10 14 -33 18 -132 20 -101 3 -129 1 -181 -17 l-61 -21 -64 23
c-106 37 -170 38 -266 5 -45 -16 -85 -25 -89 -21 -4 4 -1 22 8 40 27 57 12 68
-93 66 -78 -1 -95 -5 -132 -29z"/>
<path d="M7833 5996 c-18 -6 -48 -26 -68 -43 -20 -18 -41 -33 -45 -33 -22 0
-40 14 -40 30 0 36 -48 33 -80 -5 -11 -13 -8 -18 14 -36 36 -28 34 -60 -7 -80
-20 -10 -42 -34 -60 -67 -16 -29 -35 -52 -43 -52 -8 0 -14 3 -14 8 0 4 -13 15
-30 24 l-29 16 16 41 c10 26 30 49 54 66 22 14 39 28 39 30 0 3 -7 17 -16 30
-22 34 -62 32 -121 -5 -56 -36 -67 -37 -87 -8 -14 20 -18 20 -55 9 -50 -14
-71 -35 -71 -68 0 -25 1 -25 55 -18 47 5 59 3 85 -15 36 -25 36 -30 10 -58
-15 -16 -31 -21 -58 -20 -60 2 -118 -38 -165 -115 -10 -15 -42 -41 -72 -58
-65 -36 -78 -64 -44 -92 17 -14 32 -17 59 -12 65 11 82 8 110 -24 48 -52 115
-56 138 -8 8 15 26 33 40 38 24 9 30 6 68 -37 l41 -48 36 28 c32 25 37 34 37
71 0 29 -5 45 -15 49 -25 9 -17 32 24 69 35 32 42 34 88 30 63 -7 88 7 103 54
16 51 68 131 93 144 12 7 48 9 98 5 74 -7 80 -6 134 25 l56 31 -32 29 c-18 16
-41 29 -50 29 -10 0 -34 10 -54 22 -48 28 -103 37 -142 24z"/>
<path d="M727 5973 c-7 -11 -9 -39 -6 -78 1 -11 10 -30 19 -42 19 -24 29 -19
43 20 5 12 13 16 24 13 12 -3 25 4 37 21 18 25 18 27 1 39 -15 11 -23 11 -47
-2 -32 -16 -46 -12 -57 19 -5 12 -10 16 -14 10z"/>
<path d="M1054 5967 c-3 -9 -3 -20 0 -26 3 -5 -3 -7 -14 -4 -27 7 -39 -25 -17
-42 21 -15 22 -35 3 -35 -24 0 -29 -20 -12 -39 16 -17 15 -21 -17 -52 -19 -19
-45 -41 -58 -51 -18 -12 -21 -19 -12 -28 6 -7 9 -19 6 -27 -3 -7 2 -22 12 -33
26 -29 29 -98 4 -113 -24 -15 -26 -67 -3 -67 9 0 30 -11 46 -25 17 -14 36 -24
42 -22 12 4 16 96 4 103 -13 8 -9 51 6 63 7 6 21 8 30 5 12 -5 19 0 23 15 3
11 9 21 14 21 5 0 9 6 9 14 0 9 -7 12 -20 9 -28 -8 -24 6 16 51 37 42 58 40
59 -7 0 -17 6 -22 25 -23 14 0 31 4 38 9 15 12 16 79 0 95 -8 8 -5 20 15 46
40 51 33 72 -13 44 -16 -10 -26 -10 -52 1 -18 7 -45 16 -60 18 -16 3 -28 10
-29 17 -3 40 -12 73 -24 85 -12 13 -15 12 -21 -2z"/>
<path d="M6978 5975 c-2 -2 -28 -5 -57 -6 -37 -2 -63 -10 -85 -26 -17 -12 -63
-39 -102 -58 -102 -53 -126 -102 -83 -172 20 -32 25 -35 58 -29 20 3 54 8 76
12 22 3 48 10 57 15 21 12 95 3 162 -19 l49 -15 28 33 c22 26 28 43 27 76 0
28 7 52 21 72 17 25 29 62 18 62 -1 0 -39 13 -84 29 -45 16 -83 27 -85 26z"/>
<path d="M8543 5951 c-23 -17 -47 -45 -56 -67 -15 -38 -167 -204 -186 -204 -5
0 -12 14 -15 30 -20 100 -14 92 -55 87 -67 -7 -120 -45 -152 -109 -16 -32 -38
-64 -49 -70 -23 -15 -27 -56 -6 -64 15 -6 76 24 76 37 0 3 18 14 40 24 51 23
59 16 85 -72 17 -60 17 -64 0 -83 -38 -42 16 -78 91 -59 35 9 53 21 77 55 18
23 42 47 54 53 15 7 27 28 39 68 14 47 28 68 74 113 47 46 59 63 65 100 4 25
16 61 26 80 23 43 25 96 3 104 -34 13 -73 5 -111 -23z"/>
<path d="M279 5945 c-2 -27 2 -79 6 -83 2 -3 299 -5 348 -3 15 1 18 9 15 53
l-3 53 -182 0 c-176 0 -183 0 -184 -20z"/>
<path d="M1181 5962 c-6 -2 -11 -14 -11 -27 0 -20 6 -23 53 -27 34 -3 64 -12
83 -27 30 -22 38 -23 258 -23 l226 0 20 25 c11 14 36 35 55 47 19 12 35 25 35
28 0 7 -699 11 -719 4z"/>
<path d="M598 5742 c-17 -3 -25 -39 -20 -85 l3 -28 142 3 141 3 1 48 c1 26 -3
51 -8 54 -11 7 -229 11 -259 5z"/>
<path d="M449 5678 c-49 -17 -55 -22 -52 -43 4 -17 -5 -32 -34 -58 -43 -40
-40 -59 13 -87 35 -18 53 -40 47 -56 -2 -7 1 -15 8 -19 17 -11 139 -13 139 -2
0 5 6 4 14 -2 20 -17 48 27 43 65 -2 16 3 40 12 53 12 18 12 26 3 29 -6 2 -12
11 -13 20 0 13 -3 11 -11 -5 -6 -13 -17 -23 -25 -23 -9 0 -12 -6 -9 -18 5 -15
-1 -21 -28 -29 -39 -12 -56 -2 -56 33 0 13 -4 25 -8 28 -14 8 -7 42 11 60 12
12 14 23 7 40 -5 13 -6 27 -3 30 4 3 4 5 2 5 -2 -1 -29 -11 -60 -21z"/>
<path d="M6815 5659 c-16 -5 -45 -11 -65 -14 -19 -2 -49 -7 -66 -11 -21 -4
-40 -1 -55 9 -30 19 -66 7 -78 -26 -10 -26 -28 -43 -73 -67 -17 -9 -39 -31
-49 -49 -41 -77 16 -157 77 -109 6 4 21 35 33 68 30 83 71 110 162 105 50 -2
73 2 104 18 56 30 75 47 69 62 -8 19 -25 23 -59 14z"/>
<path d="M1225 5600 c-3 -5 0 -19 6 -32 25 -48 27 -55 18 -69 -15 -24 -10 -42
10 -36 11 3 22 -1 25 -8 7 -18 -3 -25 -36 -25 -24 0 -28 -4 -24 -18 4 -12 -1
-20 -17 -27 -13 -6 -21 -18 -20 -30 9 -86 22 -108 51 -82 27 24 51 21 58 -8 3
-14 15 -30 26 -36 16 -9 25 -5 52 24 40 43 46 91 13 109 -33 17 -37 29 -20 55
16 24 39 31 45 13 7 -21 45 2 54 33 5 18 15 33 22 33 6 1 20 2 30 3 21 1 44
42 33 59 -9 15 -58 26 -78 17 -10 -4 -30 -7 -44 -6 -19 2 -28 -3 -32 -18 -4
-15 -10 -19 -23 -14 -14 5 -16 3 -11 -12 12 -29 -2 -55 -28 -55 -31 0 -38 13
-36 71 0 38 -3 51 -19 59 -24 13 -47 13 -55 0z"/>
<path d="M732 5517 c-15 -18 -27 -77 -16 -77 5 0 22 12 38 26 29 25 29 26 9
45 -17 17 -21 18 -31 6z"/>
<path d="M345 5310 c-3 -5 -5 -29 -4 -53 l3 -44 400 1 401 1 3 53 3 52 -400 0
c-250 0 -402 -4 -406 -10z"/>
<path d="M280 5053 l0 -53 411 0 410 0 -3 53 -3 52 -407 1 -408 0 0 -53z"/>
<path d="M1728 5101 c0 -3 -2 -27 -2 -53 l-1 -48 513 0 513 0 -3 53 -3 52
-507 1 c-280 0 -509 -2 -510 -5z"/>
<path d="M147 4886 c-4 -9 -3 -59 2 -88 0 -5 192 -8 426 -8 333 0 425 3 426
13 1 6 1 30 2 52 l1 40 -427 1 c-301 1 -427 -2 -430 -10z"/>
<path d="M1859 4886 c-5 -37 -5 -73 -1 -83 3 -10 148 -13 677 -13 l672 0 -1
53 -1 52 -672 1 c-481 1 -673 -2 -674 -10z"/>
<path d="M1400 3944 c-30 -9 -57 -18 -59 -20 -3 -2 6 -19 19 -37 l25 -32 0
-322 c0 -361 -6 -335 74 -307 40 13 46 13 69 -2 15 -10 54 -19 92 -22 75 -5
129 15 181 69 92 94 110 278 38 383 -59 86 -193 105 -288 40 -20 -13 -38 -24
-42 -24 -3 0 -6 64 -6 143 l0 142 -24 2 c-13 1 -49 -5 -79 -13z m281 -300 c84
-43 101 -252 27 -331 -44 -48 -100 -62 -169 -43 l-36 10 0 163 c0 105 4 167
11 176 18 23 87 50 114 45 14 -3 38 -12 53 -20z"/>
<path d="M7478 3943 l-58 -15 24 -42 c24 -41 25 -44 26 -325 l1 -283 -26 -34
-26 -34 65 -1 c161 -2 152 -5 126 36 -20 33 -21 45 -22 375 l-1 340 -26 -1
c-14 -1 -52 -8 -83 -16z"/>
<path d="M5627 3922 c-33 -34 -33 -43 -4 -70 29 -28 31 -27 62 3 28 29 31 41
12 58 -39 37 -43 38 -70 9z"/>
<path d="M95 3911 c-3 -2 9 -19 25 -38 l30 -34 0 -270 0 -270 -26 -45 -26 -44
49 -1 c54 -1 376 -1 441 0 l42 1 0 90 c0 50 -3 90 -7 90 -5 -1 -33 -33 -64
-73 l-57 -72 -103 1 c-57 1 -106 2 -109 3 -3 0 -6 133 -5 294 l0 294 27 36
c16 19 28 37 28 39 0 5 -240 4 -245 -1z"/>
<path d="M4210 3909 c0 -4 12 -21 26 -38 l26 -31 0 -274 1 -273 -26 -39 c-15
-21 -24 -40 -22 -42 9 -9 375 -2 420 8 116 26 176 93 177 196 1 75 -34 127
-102 151 -27 10 -50 20 -50 23 0 3 17 14 37 25 52 29 76 65 81 127 5 68 -23
113 -92 147 -47 24 -58 25 -263 26 -117 1 -213 -1 -213 -6z m375 -53 c36 -24
58 -80 52 -133 -9 -86 -60 -124 -169 -130 l-68 -3 0 146 0 146 79 -4 c52 -3
88 -10 106 -22z m9 -321 c67 -32 97 -140 58 -214 -25 -50 -76 -72 -169 -74
l-78 -2 -3 152 c-2 138 -1 152 15 155 37 9 146 -2 177 -17z"/>
<path d="M6780 3909 c0 -4 11 -21 25 -37 l25 -30 0 -277 0 -278 -26 -34 c-14
-19 -24 -37 -21 -40 8 -7 227 -6 234 1 3 3 -7 22 -23 43 -27 35 -28 40 -26
146 0 60 4 112 7 115 3 4 36 6 73 7 65 0 68 -1 104 -38 20 -22 40 -37 45 -34
6 4 9 135 4 182 -1 5 -20 -10 -44 -33 -42 -42 -44 -42 -115 -42 -51 0 -72 4
-73 13 -1 15 0 277 0 295 1 9 31 12 116 12 l114 0 28 -36 c104 -135 103 -134
100 -9 l-2 80 -272 1 c-150 0 -273 -3 -273 -7z"/>
<path d="M3368 3729 c-32 -9 -58 -14 -58 -11 0 3 -5 1 -11 -5 -7 -7 -3 -20 13
-45 22 -33 23 -42 23 -214 0 -171 -1 -181 -23 -208 -12 -16 -21 -31 -18 -33 2
-2 47 -4 101 -4 54 0 99 2 101 4 3 2 -6 17 -18 32 -21 27 -22 39 -23 194 -1
155 1 167 20 184 68 60 160 53 189 -16 9 -21 14 -81 15 -180 2 -137 0 -150
-20 -178 -12 -17 -19 -32 -17 -34 4 -5 95 -8 161 -6 l38 1 -20 38 c-17 32 -20
60 -23 207 -3 165 -4 171 -30 208 -34 50 -71 69 -131 69 -55 0 -98 -15 -144
-49 -34 -24 -45 -20 -38 16 5 28 -2 48 -18 48 -7 -1 -38 -8 -69 -18z"/>
<path d="M5645 3728 c-38 -11 -72 -22 -74 -24 -3 -2 6 -18 18 -35 22 -30 22
-33 19 -322 -3 -320 -9 -357 -63 -377 -14 -5 -25 -15 -25 -21 0 -15 86 -2 122
19 29 17 62 77 76 137 11 51 16 645 5 644 -4 0 -39 -10 -78 -21z"/>
<path d="M6032 3726 c-122 -40 -185 -139 -177 -279 9 -160 108 -250 275 -250
137 1 232 64 265 178 41 140 -9 278 -120 334 -59 29 -179 38 -243 17z m138
-35 c22 -2 65 -41 82 -76 21 -41 30 -86 30 -153 1 -79 -18 -138 -56 -179 -42
-46 -112 -56 -163 -24 -98 62 -114 308 -25 396 39 39 53 43 132 36z"/>
<path d="M7904 3726 c-142 -46 -212 -207 -159 -365 42 -128 173 -188 344 -156
146 26 230 192 182 361 -15 55 -80 127 -133 149 -57 23 -181 29 -234 11z m176
-55 c14 -9 36 -39 50 -67 21 -41 25 -63 25 -139 0 -74 -5 -98 -24 -138 -48
-98 -154 -117 -224 -41 -72 77 -67 303 7 373 45 43 115 48 166 12z"/>
<path d="M9085 3731 c-101 -28 -157 -85 -180 -184 -33 -147 27 -289 141 -333
65 -25 158 -22 214 6 51 25 110 77 110 97 0 16 -16 17 -25 3 -14 -23 -88 -61
-130 -67 -47 -6 -95 8 -129 36 -26 23 -53 80 -57 121 l-4 35 180 0 180 0 -1
75 c0 82 -15 121 -62 165 -15 15 -38 31 -51 36 -34 14 -150 20 -186 10z m112
-52 c40 -13 60 -44 71 -112 13 -84 15 -83 -123 -82 l-120 1 3 39 c4 55 38 120
73 143 35 22 52 24 96 11z"/>
<path d="M9649 3725 c-82 -22 -129 -71 -129 -135 0 -74 46 -115 186 -169 100
-39 142 -78 128 -119 -12 -35 -56 -56 -122 -56 -52 -1 -53 0 -111 62 -31 34
-62 62 -68 62 -13 0 -11 -126 3 -140 17 -17 134 -37 202 -34 159 6 237 66 218
169 -11 54 -48 90 -134 125 -42 18 -96 41 -119 52 -109 54 -59 157 70 145 43
-4 54 -10 107 -66 33 -33 62 -61 65 -61 3 0 5 33 5 74 l0 74 -36 12 c-52 17
-210 20 -265 5z"/>
<path d="M773 3723 c-7 -3 -1 -29 20 -80 l31 -76 52 57 c51 55 54 56 106 56
30 0 62 -6 71 -12 31 -24 27 -79 -7 -114 -7 -6 -59 -30 -117 -53 -138 -55
-174 -89 -173 -164 0 -88 50 -137 137 -137 59 0 104 20 150 66 l37 37 0 -46
c0 -50 -2 -49 65 -49 19 0 51 1 70 1 l35 1 -25 38 c-25 37 -25 38 -22 258 l2
221 -210 0 c-116 0 -215 -2 -222 -4z m308 -228 c0 -19 1 -63 2 -96 2 -58 0
-63 -28 -84 -63 -47 -151 -51 -171 -7 -27 60 -4 100 90 154 39 23 75 47 79 55
14 24 27 14 28 -22z"/>
<path d="M2005 3722 c-3 -3 4 -19 14 -36 17 -27 20 -56 23 -201 4 -164 5 -173
30 -217 56 -95 189 -99 274 -8 37 39 45 38 42 -5 -1 -19 1 -37 5 -41 7 -7 146
-8 153 -1 3 2 -6 17 -18 33 -22 27 -23 36 -24 249 -1 121 -2 223 -3 226 -1 5
-150 5 -158 0 -1 0 8 -17 21 -36 22 -32 24 -43 23 -186 l-1 -151 -28 -29 c-39
-39 -97 -56 -137 -40 -47 20 -59 64 -60 226 -1 123 1 145 19 177 11 21 20 39
20 41 0 5 -190 4 -195 -1z"/>
<path d="M2685 3703 c3 -13 17 -49 30 -80 l25 -56 51 57 c51 56 52 56 109 56
64 0 90 -18 90 -62 0 -46 -34 -74 -142 -115 -131 -49 -178 -91 -178 -157 0
-76 22 -112 80 -137 62 -27 165 3 214 62 28 33 34 29 32 -23 -2 -42 -10 -39
99 -40 31 0 58 2 61 5 3 2 -5 20 -18 39 -22 32 -23 40 -22 238 1 113 3 212 5
220 3 13 -27 15 -219 15 l-223 1 6 -23z m312 -272 l0 -99 -41 -26 c-83 -54
-166 -31 -166 45 0 30 6 42 33 64 36 29 158 112 168 114 4 0 7 -43 6 -98z"/>
<path d="M4955 3720 c-5 -8 41 -129 54 -142 4 -4 28 17 55 47 47 55 48 55 105
55 67 0 91 -18 91 -67 0 -42 -32 -68 -131 -107 -120 -47 -147 -63 -169 -99
-39 -64 -14 -162 50 -194 59 -30 168 -5 219 51 33 35 41 33 41 -14 0 -44 -5
-42 98 -42 29 0 56 2 59 5 3 3 -4 19 -16 35 -19 27 -21 43 -21 239 -1 115 0
216 2 224 3 12 -31 14 -215 15 -120 0 -220 -2 -222 -6z m315 -290 l0 -99 -44
-26 c-59 -34 -122 -37 -148 -5 -28 35 -23 77 15 112 32 30 155 115 170 117 4
0 7 -44 7 -99z"/>
<path d="M8385 3722 c-2 -3 7 -19 20 -37 25 -31 25 -36 25 -219 0 -175 -1
-190 -21 -218 -12 -16 -19 -32 -15 -35 6 -7 197 -6 204 1 2 3 -8 17 -22 33
l-26 28 0 191 c0 212 0 210 64 218 35 4 43 0 91 -45 28 -27 54 -49 57 -49 6 0
15 29 25 80 12 59 25 55 -195 56 -111 0 -204 -2 -207 -4z"/>
<path d="M3559 2714 l-24 -25 25 -19 c14 -11 28 -20 31 -20 7 0 43 51 37 53
-2 1 -12 10 -24 20 -20 16 -21 16 -45 -9z"/>
<path d="M7392 2712 l-20 -27 25 -19 c25 -18 25 -18 45 2 23 23 19 45 -11 61
-16 9 -23 6 -39 -17z"/>
<path d="M6215 2722 c-11 -2 -30 -8 -43 -13 -20 -8 -21 -12 -11 -31 17 -32 19
-344 2 -380 -12 -25 -11 -27 10 -30 12 -2 39 -1 59 1 35 3 36 4 24 25 -9 13
-14 54 -15 111 0 85 1 91 26 112 32 28 74 30 97 4 22 -24 29 -183 9 -223 -12
-25 -11 -27 10 -30 12 -2 39 -1 59 1 35 3 37 4 23 25 -9 14 -14 52 -14 118 0
111 -14 151 -58 165 -15 5 -32 9 -38 8 -32 -3 -73 -19 -91 -36 l-21 -20 0 96
c0 53 -2 97 -4 99 -2 1 -13 0 -24 -2z"/>
<path d="M1820 2641 l0 -56 35 40 c19 22 34 43 35 47 0 3 19 6 43 6 l42 0 0
-184 c-1 -130 -4 -187 -13 -196 -25 -25 -12 -33 49 -31 71 2 78 6 57 30 -12
15 -15 51 -14 198 l1 180 35 2 c30 2 41 -4 77 -45 l42 -47 -2 55 -2 55 -193 1
-192 0 0 -55z"/>
<path d="M5074 2674 c6 -22 2 -36 -35 -121 -11 -24 -19 -46 -19 -50 0 -20 -66
-172 -87 -200 -13 -18 -23 -33 -21 -34 20 -4 98 -3 98 2 0 3 -7 20 -15 36 -14
28 -14 35 2 75 l18 44 82 1 82 1 17 -54 c13 -42 14 -60 6 -79 -10 -21 -8 -24
11 -27 12 -2 43 -1 69 0 l48 4 -19 26 c-10 15 -28 59 -40 97 -12 39 -26 79
-31 90 -5 11 -22 63 -39 115 l-31 95 -51 1 c-48 1 -50 -1 -45 -22z m64 -126
c17 -51 29 -95 26 -97 -2 -3 -33 -5 -69 -6 -74 -1 -75 -1 -44 77 12 29 22 58
24 63 12 40 18 55 24 55 4 0 21 -42 39 -92z"/>
<path d="M5905 2610 c-34 -35 -44 -50 -32 -50 9 0 17 -3 17 -7 1 -5 2 -63 3
-129 2 -104 5 -125 21 -143 21 -23 62 -27 101 -9 32 14 32 27 0 20 -46 -8 -52
8 -53 143 l-1 125 34 0 c19 0 35 5 35 10 0 6 -15 10 -34 10 -33 0 -35 2 -38
40 l-3 41 -50 -51z"/>
<path d="M7635 2610 c-39 -40 -45 -50 -29 -50 18 0 19 -7 19 -127 -1 -120 1
-129 22 -150 27 -28 68 -29 108 -3 l30 20 -37 -7 c-49 -7 -54 6 -57 154 l-2
113 36 0 c19 0 35 5 35 10 0 6 -15 10 -34 10 -33 0 -35 2 -38 40 l-3 41 -50
-51z"/>
<path d="M2394 2571 c-106 -48 -119 -212 -22 -284 41 -31 141 -33 192 -4 99
56 104 219 9 278 -47 29 -126 33 -179 10z m130 -25 c53 -43 59 -178 12 -233
-17 -20 -33 -27 -59 -27 -67 0 -104 63 -94 162 7 62 32 104 68 112 38 10 46 8
73 -14z"/>
<path d="M3562 2579 c-31 -9 -32 -11 -17 -32 22 -31 21 -223 -1 -255 -8 -12
-12 -22 -7 -23 37 -4 97 -3 106 3 8 5 7 11 -1 21 -9 10 -13 60 -13 156 0 156
4 150 -67 130z"/>
<path d="M3865 2585 c-5 -2 -22 -6 -37 -9 -58 -13 -86 -76 -53 -123 8 -11 45
-33 82 -49 73 -31 85 -39 96 -66 9 -24 -35 -52 -79 -51 -26 1 -43 11 -74 44
l-39 42 1 -46 c0 -45 2 -47 37 -57 92 -25 202 -1 219 49 16 45 -7 84 -64 110
-105 48 -119 57 -122 78 -4 30 24 53 66 53 30 0 45 -8 79 -41 l42 -41 -1 46
c0 31 -5 47 -17 51 -18 7 -120 14 -136 10z"/>
<path d="M4165 2583 c-30 -7 -41 -21 -27 -35 15 -15 16 -231 2 -259 -10 -18
-7 -19 51 -19 60 0 61 1 46 18 -14 15 -17 40 -17 124 0 105 0 105 28 117 47
22 71 22 92 1 22 -22 22 -21 25 -135 2 -55 -2 -87 -12 -102 -14 -25 -14 -25
37 -25 68 0 73 1 59 18 -8 10 -13 52 -15 124 -1 101 0 109 20 119 40 22 77 18
98 -11 17 -22 21 -42 21 -115 0 -49 -5 -98 -11 -110 -11 -19 -9 -22 11 -25 12
-2 39 -1 59 1 35 3 36 4 24 25 -9 13 -14 55 -15 113 -1 134 -21 171 -96 178
-18 2 -89 -25 -106 -41 -15 -13 -17 -13 -23 1 -3 9 -20 22 -37 29 -36 15 -103
5 -130 -20 -22 -20 -29 -18 -29 11 0 25 -10 29 -55 18z"/>
<path d="M6689 2581 c-95 -30 -137 -134 -96 -234 24 -57 70 -82 152 -82 80 0
123 22 151 78 33 62 16 167 -32 208 -41 34 -119 47 -175 30z m98 -28 c51 -34
69 -133 37 -212 -30 -76 -118 -76 -157 -1 -25 47 -18 146 12 189 19 26 31 32
74 40 4 0 19 -7 34 -16z"/>
<path d="M7425 2585 c-5 -2 -23 -6 -38 -9 -25 -6 -26 -8 -12 -22 23 -24 24
-230 1 -266 -16 -25 -22 -24 103 -19 11 1 11 5 -2 19 -14 15 -17 42 -17 160 0
143 -1 148 -35 137z"/>
<path d="M2753 2562 c12 -13 16 -42 18 -122 1 -110 13 -151 48 -170 44 -23
114 -2 145 42 16 22 16 22 16 -10 0 -33 4 -36 55 -32 37 2 42 7 27 22 -8 8
-12 57 -12 150 l0 138 -45 0 c-42 0 -58 -11 -35 -25 15 -9 13 -204 -3 -219
-34 -35 -85 -42 -111 -16 -15 15 -21 219 -7 233 21 21 10 27 -51 27 -58 0 -60
-1 -45 -18z"/>
<path d="M3194 2558 c24 -34 23 -250 -1 -269 -14 -12 -12 -15 23 -19 21 -3 52
-3 67 -1 26 3 27 4 11 22 -22 24 -24 247 -2 260 25 16 52 9 84 -22 29 -28 33
-29 37 -13 3 11 8 29 12 42 6 22 6 22 -120 22 l-126 0 15 -22z"/>
<path d="M5430 2571 c0 -6 5 -13 10 -16 6 -3 10 -48 10 -98 0 -107 10 -151 42
-179 34 -30 100 -20 142 21 l32 31 0 -32 c-1 -34 -4 -33 76 -29 20 1 20 2 5
19 -14 15 -17 42 -17 155 l0 137 -45 0 c-47 0 -52 -5 -32 -31 8 -11 12 -49 11
-109 -1 -103 -14 -127 -70 -134 -57 -8 -71 19 -72 139 -1 63 4 97 14 113 14
22 14 22 -46 22 -33 0 -60 -4 -60 -9z"/>
<path d="M7025 2560 c16 -17 19 -39 20 -128 1 -70 -4 -116 -12 -134 -15 -30
-16 -30 62 -30 47 0 49 1 33 20 -12 13 -16 43 -17 127 -1 61 3 116 8 124 18
28 60 24 94 -9 l32 -31 7 23 c16 59 19 58 -119 58 l-126 0 18 -20z"/>
<path d="M7880 2576 c0 -4 74 -164 119 -255 l31 -64 -40 -74 -39 -73 40 0 c39
0 39 0 25 23 -14 21 -9 33 80 201 52 99 104 194 115 213 l21 33 -51 0 c-28 0
-51 -2 -51 -5 0 -2 9 -19 19 -36 l19 -31 -34 -60 c-19 -33 -34 -63 -34 -66 -1
-13 -40 -57 -40 -45 0 6 -18 51 -41 100 -39 85 -40 88 -24 115 l16 28 -65 0
c-36 0 -66 -2 -66 -4z"/>
</g>
</svg>
